%YAML 1.1
%TAG !u! tag:unity3d.com,2011:
--- !u!1045 &1
EditorBuildSettings:
  m_ObjectHideFlags: 0
  serializedVersion: 2
  m_Scenes:
  - enabled: 1
    path: Assets/_WorkingSpace/Scenes/0_Global.unity
    guid: c6f30915c301f75458ecdbfb8eee6c53
  - enabled: 1
    path: Assets/_WorkingSpace/Scenes/1_Home_new.unity
    guid: e4f992ec1a1605b4898898e54381e769
  - enabled: 1
    path: Assets/_WorkingSpace/Scenes/2_CaptureAndQuestion_New.unity
    guid: 0bd0fce2a47fb3e42a372eef42cb27fb
  - enabled: 1
    path: Assets/_WorkingSpace/Scenes/3_Result_New 3.unity
    guid: 44f161392d74e3f49b2dff1673f57e06
  m_configObjects: {}
